<svg width="25" height="25" viewBox="0 0 25 25" fill="none" xmlns="http://www.w3.org/2000/svg">
<rect width="25" height="25" fill="#FFC400"/>
<path d="M6 10.5L12 16.5L20.5 8" stroke="white" stroke-width="3"/>
</svg>
